ENST00000287598.6
ENST00000215793.8
ENST00000369797.3
ENST00000407426.3
ENST00000389629.4
ENST00000302516.5
ENST00000335508.6
ENST00000375147.3
ENST00000264389.2
ENST00000379068.3
ENST00000199814.4
ENST00000308696.6
ENST00000282074.2
ENST00000254719.5
ENST00000300738.5
ENST00000314616.6
ENST00000375663.3
ENST00000330579.1
ENST00000264954.4
ENST00000221494.5
ENST00000245934.7
ENST00000314761.4
ENST00000375151.4
ENST00000308159.5
ENST00000156471.5
ENST00000371477.3
ENST00000264028.4
ENST00000258091.5
ENST00000360876.4
ENST00000261396.3
ENST00000227524.4
ENST00000373237.3
ENST00000270586.3
ENST00000357214.5
ENST00000323853.5
