GFPmodel CombinedModel
AQR -0.443099729879467 -0.518011257035647
EIF3B -0.604718796105944 -0.733012364591312
NUP133 -0.647923183352583 -0.672045028142589
NUP93 -0.262770299083579 -0.506003752345216
RPA1 -0.344216156876512 -0.474859287054409
SF3A1 -0.538981145068291 -0.645403377110694
SF3B1 -0.261856736655145 -0.688367729831144
SFPQ -0.653028703170748 -0.750607287449393
SNRNP200 -0.30093051598694 -0.469088521720101
WDR75 -0.559140111015295 -0.351969981238274
